{
  "books": [
    {
      "id": 0,
      "name": "The First Book",
      "image": "images/book1.png",
      "label": "Hot",
      "price": "10",
      "bestseller": true,
      "mainevent": "The Best Seller!",
      "description": "lorem ipsum dolor sit amet, consectetur adipiscing elit, sed do eiusmod tempor incididunt ut labore et dolore magna aliqua. Ut enim ad minim veniam, quis nostrud exercitation ullamco laboris nisi ut aliquip ex ea commodo consequat. "
    },
    {
      "id": 1,
      "name": "The Second Book",
      "image": "images/book2.png",
      "label": "",
      "price": "8",
      "featured": false,
      "description": "lorem ipsum dolor sit amet, consectetur adipiscing elit, sed do eiusmod tempor incididunt ut labore et dolore magna aliqua. Ut enim ad minim veniam, quis nostrud exercitation ullamco laboris nisi ut aliquip ex ea commodo consequat. "
    },
    {
      "id": 2,
      "name": "The Third Book",
      "image": "images/book3.png",
      "category": "appetizer",
      "price": "9.99",
      "featured": false,
      "description": "lorem ipsum dolor sit amet, consectetur adipiscing elit, sed do eiusmod tempor incididunt ut labore et dolore magna aliqua. Ut enim ad minim veniam, quis nostrud exercitation ullamco laboris nisi ut aliquip ex ea commodo consequat. "
    },
    {
      "id": 3,
      "name": "The Fourth Book",
      "image": "images/book4.png",
      "label": "",
      "price": "7",
      "mostrated": true,
      "mainevent": "The Highest Rated!",
      "description": "lorem ipsum dolor sit amet, consectetur adipiscing elit, sed do eiusmod tempor incididunt ut labore et dolore magna aliqua. Ut enim ad minim veniam, quis nostrud exercitation ullamco laboris nisi ut aliquip ex ea commodo consequat. "
    },
    {
      "id": 4,
      "name": "The Fifth Book",
      "image": "images/book5.png",
      "label": "Hot",
      "price": "8",
      "featured": false,
      "description": "lorem ipsum dolor sit amet, consectetur adipiscing elit, sed do eiusmod tempor incididunt ut labore et dolore magna aliqua. Ut enim ad minim veniam, quis nostrud exercitation ullamco laboris nisi ut aliquip ex ea commodo consequat. "
    },
    {
      "id": 5,
      "name": "The Sixth Book",
      "image": "images/book6.png",
      "label": "",
      "price": "10",
      "featured": false,
      "description": "lorem ipsum dolor sit amet, consectetur adipiscing elit, sed do eiusmod tempor incididunt ut labore et dolore magna aliqua. Ut enim ad minim veniam, quis nostrud exercitation ullamco laboris nisi ut aliquip ex ea commodo consequat. "
    },
    {
      "id": 6,
      "name": "The Seventh Book",
      "image": "images/book7.png",
      "label": "New",
      "price": "6",
      "featured": false,
      "description": "lorem ipsum dolor sit amet, consectetur adipiscing elit, sed do eiusmod tempor incididunt ut labore et dolore magna aliqua. Ut enim ad minim veniam, quis nostrud exercitation ullamco laboris nisi ut aliquip ex ea commodo consequat. "
    },
    {
      "id": 7,
      "name": "The Eighth Book",
      "image": "images/book8.png",
      "label": "",
      "price": "12",
      "newlaunch": true,
      "mainevent": "Just Launched!",
      "description": "lorem ipsum dolor sit amet, consectetur adipiscing elit, sed do eiusmod tempor incididunt ut labore et dolore magna aliqua. Ut enim ad minim veniam, quis nostrud exercitation ullamco laboris nisi ut aliquip ex ea commodo consequat. "
    }
  ],
  "users": [
    {
      "id": 3,
      "username": "user3",
      "password": "user3",
      "cart": []
    },
    {
      "id": 2,
      "username": "user2",
      "password": "user2",
      "cart": [
        {
          "bookid": 1,
          "quantity": 1,
          "id": 4
        },
        {
          "bookid": 1,
          "quantity": 1,
          "id": 5
        },
        {
          "bookid": 1,
          "quantity": 1,
          "id": 2000
        },
        {
          "bookid": 4,
          "quantity": 1,
          "id": 40
        }
      ]
    },
    {
      "id": 4,
      "username": "user4",
      "password": "user4",
      "cart": []
    },
    {
      "id": 1,
      "username": "user1",
      "password": "user1",
      "cart": [
        {
          "bookid": 1,
          "quantity": 1
        },
        {
          "bookid": 1,
          "quantity": 1
        },
        {
          "bookid": 1,
          "quantity": 1
        },
        {
          "bookid": 7,
          "quantity": 1
        },
        {
          "bookid": 4,
          "quantity": 1
        }
      ]
    }
  ]
}